{
    "CoreLocation.framework": 3,
    "SystemConfiguration.framework": 1,
    "CoreTelephony.framework": 1,
    "CoreBluetooth.framework": 1,
    "CoreMotion.framework": 1,
    "AVFoundation.framework": 2,
    "Photos.framework": 1,
    "AddressBook.framework": 2,
    "EventKit.framework": 1,
    "Contacts.framework": 1,
    "UserNotifications.framework": 1,
    "ImageIO.framework": 1,
    "AddressBookUI.framework": 1
}