{
    "prepare_queue": {
        "installed": [],
        "uninstalled": []
    },
    "config_munge": {
        "files": {}
    },
    "installed_plugins": {
        "cordova-plugin-console": {
            "PACKAGE_NAME": "com.ionicframework.spry409966"
        },
        "cordova-plugin-device": {
            "PACKAGE_NAME": "com.ionicframework.spry409966"
        },
        "cordova-plugin-network-information": {
            "PACKAGE_NAME": "com.ionicframework.spry409966"
        },
        "cordova-plugin-splashscreen": {
            "PACKAGE_NAME": "com.ionicframework.spry409966"
        },
        "cordova-plugin-statusbar": {
            "PACKAGE_NAME": "com.ionicframework.spry409966"
        },
        "cordova-plugin-whitelist": {
            "PACKAGE_NAME": "com.ionicframework.spry409966"
        },
        "cordova-sqlite-storage": {
            "PACKAGE_NAME": "com.ionicframework.spry409966"
        },
        "cordova.plugins.diagnostic": {
            "PACKAGE_NAME": "com.ionicframework.spry409966"
        },
        "ionic-plugin-keyboard": {
            "PACKAGE_NAME": "com.ionicframework.spry409966"
        },
        "cordova-plugin-camera": {
            "CAMERA_USAGE_DESCRIPTION": " ",
            "PHOTOLIBRARY_USAGE_DESCRIPTION": " ",
            "PACKAGE_NAME": "com.ionicframework.spry409966"
        },
        "cordova-plugin-contacts": {
            "CONTACTS_USAGE_DESCRIPTION": " ",
            "PACKAGE_NAME": "com.ionicframework.spry409966"
        },
        "cordova-plugin-geolocation": {
            "GEOLOCATION_USAGE_DESCRIPTION": " ",
            "PACKAGE_NAME": "com.ionicframework.spry409966"
        },
        "com.telerik.plugins.nativepagetransitions": {
            "PACKAGE_NAME": "com.ionicframework.spry409966"
        }
    },
    "dependent_plugins": {
        "cordova-plugin-compat": {
            "PACKAGE_NAME": "com.ionicframework.spry409966"
        }
    }
}